{
  "version": "1.0",
  "description": "怀揣思念同我再会",
  "url": "http://alist.zxc.cn/d/scoop/aikoi.7z",
  "hash": "8858675f9c57348d0a798ba1ecc5dc9473c26a23f109a244697c04dd80e78b3a",
  "post_install": [
    "mkdir $env:GalSave\\aikoi >$null 2>$null",
    "New-Item -ItemType Junction -Path $dir\\UserData -Target $env:GalSave\\aikoi >$null"
  ],
  "shortcuts": [
    [
      "怀揣思念同我再会!!.exe",
      "怀揣思念同我再会"
    ],
    [
      "怀揣思念同我再会!!.exe",
      "aikoi"
    ]
  ]
}
