{
  "version": "1.0",
  "description": "甘神大人的糖浆恋祭",
  "url": "http://alist.zxc.cn/d/scoop/amakoi.7z",
  "hash": "4554b7729abc0b3a3273a65c5644c3bc0bb1d2361dd95a1c20e57f80fce2eb19",
  "post_install": [
    "$SourceFilePath = \"$env:USERPROFILE\\scoop\\apps\\locale-emulator\\current\\LEProc.exe\"",
    "$ChineseName = \"甘神大人的糖浆恋祭\"",
    "$Name = \"amakoi\"",
    "$ShortcutPath1 = \"${env:APPDATA}\\Microsoft\\Windows\\Start Menu\\Programs\\Scoop Apps\\$ChineseName.lnk\"",
    "$ShortcutPath2 = \"${env:APPDATA}\\Microsoft\\Windows\\Start Menu\\Programs\\Scoop Apps\\$Name.lnk\"",
    "$DefaultSaveDir = \"$dir\\savedata_cn\"",
    "$exe = \"amakoi_cn.exe\"",
    "$Arguments = \"-run $dir\\$exe\"",
    "$Icon = \"$dir\\$exe, 0\"",
    "$WScriptObj = New-Object -ComObject (\"WScript.Shell\")",
    "$shortcut = $WscriptObj.CreateShortcut($ShortcutPath1)",
    "$shortcut.TargetPath = $SourceFilePath",
    "$shortcut.Arguments = $Arguments",
    "$shortcut.WorkingDirectory = \"$dir\";",
    "$shortcut.WindowStyle = 1;",
    "$shortcut.IconLocation = $Icon",
    "$shortcut.Save()",
    "Copy-Item \"$ShortcutPath1\" -Destination \"$ShortcutPath2\"",
    "mkdir $env:GalSave\\$Name >$null 2>$null",
    "New-Item -ItemType Junction -Path $DefaultSaveDir -Target ${env:GalSave}\\$Name >$null"
  ],
  "uninstaller": {
    "script": [
      "$ChineseName = \"甘神大人的糖浆恋祭\"",
      "$Name = \"amakoi\"",
      "$ShortcutPath1 = \"${env:APPDATA}\\Microsoft\\Windows\\Start Menu\\Programs\\Scoop Apps\\$ChineseName.lnk\"",
      "$ShortcutPath2 = \"${env:APPDATA}\\Microsoft\\Windows\\Start Menu\\Programs\\Scoop Apps\\$Name.lnk\"",
      "Remove-Item -Path \"$ShortcutPath1\"",
      "Remove-Item -Path \"$ShortcutPath2\""
    ]
  }
}
