{
  "version": "1.0",
  "description": "安娜贝尔女仆花园",
  "url": "http://alist.zxc.cn/d/scoop/anabel.7z",
  "hash": "4a17b0c81aae45c5710e486954fd9e639833ff9fc2275b73d2d90ff15bf7cd2a",
  "post_install": [
    "mkdir $env:GalSave\\anabel >$null 2>$null",
    "$path = [environment]::getfolderpath(\"mydocuments\")",
    "New-Item -ItemType Junction -Path \"$path\\My Games\\安娜贝尔女仆花园\" -Target $env:GalSave\\anabel >$null"
  ],
  "shortcuts": [
    [
      "anabel_chs_v1.0.exe",
      "安娜贝尔女仆花园"
    ],
    [
      "anabel_chs_v1.0.exe",
      "anabel maid garden"
    ]
  ],
  "uninstaller": {
    "script": [
      "$path = [environment]::getfolderpath(\"mydocuments\")",
      "Remove-Item -Path \"$path\\My Games\\安娜贝尔女仆花园\" -Recurse -Force"
    ]
  }
}
