{
  "version": "1.0",
  "description": "流景之海的艾佩理雅",
  "url": "http://alist.zxc.cn/d/scoop/apeiria.7z",
  "hash": "12ca3ab8066597f85eb6ce3105e776196aff5ff22772a8439397ad23baed7920",
  "post_install": [
    "$ChineseName = \"流景之海的艾佩理雅\"",
    "$Name = \"apeiria\"",
    "$DefaultSaveDir = \"$dir\\save_cn\"",
    "mkdir $env:GalSave\\$Name >$null 2>$null",
    "if ((Get-ChildItem ${env:GalSave}\\$Name).Count -eq 0)",
    "{",
    "Move-Item $DefaultSaveDir\\* ${env:GalSave}\\$Name",
    "}",
    "Remove-Item -Path \"$DefaultSaveDir\" -Recurse -Force",
    "New-Item -ItemType Junction -Path $DefaultSaveDir -Target ${env:GalSave}\\$Name >$null"
  ],
  "shortcuts": [
    [
      "apeiria_cn.exe",
      "apeiria"
    ],
    [
      "apeiria_cn.exe",
      "流景之海的艾佩理雅"
    ]
  ]
}