{
    "version"     : "1.0",
    "description" : "BUNNYBLACK 3",
    "url"         : "http://alist.zxc.cn/d/scoop/bunny3.7z",
    "hash"        : "9CC1AB9346EE3BCD8CCDC2A303407102A0161BC6D556BACD08BE18E3B6559C23",
    "post_install": [
        "$SourceFilePath = \"$env:USERPROFILE\\scoop\\apps\\locale-emulator\\current\\LEProc.exe\"",
        "$ChineseName = \"BUNNYBLACK 3\"",
        "$Name = \"bunny3\"",
        "$ShortcutPath1 = \"${env:APPDATA}\\Microsoft\\Windows\\Start Menu\\Programs\\Scoop Apps\\$ChineseName.lnk\"",
        "$ShortcutPath2 = \"${env:APPDATA}\\Microsoft\\Windows\\Start Menu\\Programs\\Scoop Apps\\$Name.lnk\"",
        "$DefaultSaveDir = \"$dir\\Bunny3.sav\"",
        "$exe = \"Bunny3Chs.exe\"",
        "$Arguments = \"-run $dir\\$exe\"",
        "$Icon = \"$dir\\$exe, 0\"",
        "$WScriptObj = New-Object -ComObject (\"WScript.Shell\")",
        "$shortcut = $WscriptObj.CreateShortcut($ShortcutPath1)",
        "$shortcut.TargetPath = $SourceFilePath",
        "$shortcut.Arguments = $Arguments",
        "$shortcut.WorkingDirectory = \"$dir\";",
        "$shortcut.WindowStyle = 1;",
        "$shortcut.IconLocation = $Icon",
        "$shortcut.Save()",
        "Copy-Item \"$ShortcutPath1\" -Destination \"$ShortcutPath2\"",
        "mkdir $env:GalSave\\$Name >$null 2>$null",
        "New-Item -ItemType Junction -Path $DefaultSaveDir -Target ${env:GalSave}\\$Name >$null"
    ],
    "uninstaller": {
        "script": [
            "$ChineseName = \"BUNNYBLACK 3\"",
            "$Name = \"bunny3\"",
            "$ShortcutPath1 = \"${env:APPDATA}\\Microsoft\\Windows\\Start Menu\\Programs\\Scoop Apps\\$ChineseName.lnk\"",
            "$ShortcutPath2 = \"${env:APPDATA}\\Microsoft\\Windows\\Start Menu\\Programs\\Scoop Apps\\$Name.lnk\"",
            "$DefaultSaveDir = \"$dir\\Bunny3.sav\"",
            "Remove-Item -Path $DefaultSaveDir -Recurse -Force",
            "Remove-Item -Path \"$ShortcutPath1\"",
            "Remove-Item -Path \"$ShortcutPath2\""
        ]
    }
}
