{
  "version": "1.0",
  "description": "COSPLAY LOVE! : Enchanted princess",
  "url": "http://alist.zxc.cn/d/scoop/cosplaylove.7z",
  "hash": "62880e2aa4617e95ce83122ad5a82362805c137bc86c63e2a9bb311013105f36",
  "post_install": [
    "mkdir $env:GalSave\\cosplaylove >$null 2>$null",
    "New-Item -ItemType Junction -Path $dir\\savedata -Target $env:GalSave\\cosplaylove >$null"
  ],
  "shortcuts": [
    [
      "CosplayLove.exe",
      "COSPLAY LOVE! : Enchanted princess"
    ]
  ]
}
