{
    "version"     : "1.0",
    "description" : "駄作 ～ヌイアワセ～",
    "url"         : "http://alist.zxc.cn/d/scoop/dasaku.7z",
    "hash"        : "D1AC432E7DA9F2A6D4962A4ECBDC810C4BF9993B1A81AEF5C909D641562EBD0A",
    "post_install": [
        "mkdir $env:GalSave\\dasaku >$null 2>$null",
        "$path = [environment]::getfolderpath(\"mydocuments\")",
        "New-Item -ItemType Junction -Path $path\\CYCLET\\DASAKU_HD_savefiles\\sav -Target $env:GalSave\\dasaku >$null"
    ],
    "shortcuts"   : [
        [
            "dasaku_HD_cn.exe",
            "dasaku"
        ],
        [
            "dasaku_HD_cn.exe",
            "駄作 ～ヌイアワセ～"
        ]
    ]
}
