{
  "version": "1.0",
  "description": "Deep One",
  "url": "http://alist.zxc.cn/d/scoop/deepone.7z",
  "hash": "7e6465253118848d275f68f2d2dea4e4c50579d7c6bf4f4fecbcb44a0739fc3a",
  "post_install": [
    "mkdir $env:GalSave\\deepone >$null 2>$null",
    "New-Item -ItemType Junction -Path \"$dir\\savedata\" -Target $env:GalSave\\deepone >$null"
  ],
  "shortcuts": [
    [
      "DeepOne_cn.exe",
      "Deep One"
    ]
  ]
}
