{
  "version": "1.0",
  "description": "秽翼的尤斯蒂娅",
  "url": "http://alist.zxc.cn/d/scoop/eustia.7z",
  "hash": "c931f11bc57700202d8c569c170850e4a74ac2905a8df338db5bc5e2a2ae3720",
  "post_install": [
    "mkdir $env:GalSave\\eustia >$null 2>$null",
    "New-Item -ItemType Junction -Path $dir\\UserData -Target $env:GalSave\\eustia >$null"
  ],
  "shortcuts": [
    [
      "秽翼的尤斯蒂娅.exe",
      "eustia"
    ],
    [
      "秽翼的尤斯蒂娅.exe",
      "秽翼的尤斯蒂娅"
    ]
  ]
}
