{
    "version": "1.0",
    "description": "ghostpia",
    "url": "http://alist.zxc.cn/d/scoop/ghostpia.7z",
    "hash": "357cf300d8c9d3358c9dbd7d53196ece1d44d517143f8922d21e8d651c00705f",
    "post_install": [
        "mkdir $env:GalSave\\ghostpia >$null 2>$null",
        "New-Item -ItemType Junction -Path \"${env:userprofile}\\AppData\\LocalLow\\Chosuido\\ghostpia\" -Target $env:GalSave\\ghostpia >$null"
    ],
    "shortcuts": [
        [
            "ghostpia.exe",
            "ghostpia"
        ]
    ],
    "uninstaller": {
        "script": [
            "Remove-Item -Path \"${env:userprofile}\\AppData\\LocalLow\\Chosuido\\ghostpia\" -Recurse -Force"
        ]
    }
}
