{
  "version": "1.0",
  "description": "灵感满溢的甜蜜创想",
  "url": "http://alist.zxc.cn/d/scoop/hamidashi.7z",
  "hash": "4c5f3322c4cac6fd699b0d0520ed986bb917f3bfae7508913ca1e8ee06603e90",
  "post_install": [
    "mkdir $env:GalSave\\hamidashi >$null 2>$null",
    "New-Item -ItemType Junction -Path $env:APPDATA\\まどそふと\\ハミダシクリエイティブ -Target $env:GalSave\\hamidashi >$null"
  ],
  "shortcuts": [
    [
      "hamidashi.exe",
      "hamidashi"
    ],
    [
      "hamidashi.exe",
      "灵感满溢的甜蜜创想"
    ]
  ],
  "uninstaller": {
    "script": [
      "Remove-Item -Path $env:APPDATA\\まどそふと\\ハミダシクリエイティブ -Force",
    ]
  }
}
