{
  "version": "1.0",
  "description": "甜蜜恶魔！Honey＆Devil",
  "url": "http://alist.zxc.cn/d/scoop/hanidevi.7z",
  "hash": "631bd67dc18b8e864421dfefce136f8c2fc485a98f534c1c3a92dea5034782b7",
  "post_install": [
    "mkdir $env:GalSave\\hanidevi >$null 2>$null",
    "$path = [environment]::getfolderpath(\"mydocuments\")",
    "New-Item -ItemType Junction -Path $path\\はにデビ！\\SaveData -Target $env:GalSave\\hanidevi >$null"
  ],
  "shortcuts": [
    [
      "甜蜜恶魔汉化补丁.exe",
      "甜蜜恶魔！"
    ],
    [
      "甜蜜恶魔汉化补丁.exe",
      "Honey＆Devil"
    ]
  ],
  "uninstaller": {
    "script": [
      "$path = [environment]::getfolderpath(\"mydocuments\")",
      "Remove-Item -Path \"$path\\はにデビ！\\SaveData\" -Recurse -Force"
    ]
  }
}
