{
  "version": "1.0",
  "description": "Holy Breaker!",
  "url": "http://alist.zxc.cn/d/scoop/holybreaker.7z",
  "hash": "1c5fed15ecae614a9944408aff7e03c9cd96ffd6ce9391374659e91b6e0e3151",
  "post_install": [
    "mkdir $env:GalSave\\holybreaker >$null 2>$null",
    "New-Item -ItemType Junction -Path $dir\\savedata -Target $env:GalSave\\holybreaker >$null"
  ],
  "shortcuts": [
    [
      "SiglusEngineCHS.exe",
      "Holy Breaker!"
    ]
  ]
}
