{
    "version"     : "1.0",
    "description" : "家有仙妻～无名小猫又与神Tuber～",
    "url"         : "http://alist.zxc.cn/d/scoop/iegami2.7z",
    "hash"        : "CEC56C6969393EEBA192085DFA70B5DAB80AEA33688378BBA1F47C44B71FDA2B",
    "post_install": [
        "$SourceFilePath = \"$env:USERPROFILE\\scoop\\apps\\locale-emulator\\current\\LEProc.exe\"",
        "$ChineseName = \"家有仙妻～无名小猫又与神tuber～\"",
        "$Name = \"iegami2\"",
        "$ShortcutPath1 = \"${env:APPDATA}\\Microsoft\\Windows\\Start Menu\\Programs\\Scoop Apps\\$ChineseName.lnk\"",
        "$ShortcutPath2 = \"${env:APPDATA}\\Microsoft\\Windows\\Start Menu\\Programs\\Scoop Apps\\$Name.lnk\"",
        "$DefaultSaveDir = \"$dir\\save\"",
        "$exe = \"iegami02_cn.exe\"",
        "$Arguments = \"-run $dir\\$exe\"",
        "$Icon = \"$dir\\$exe, 0\"",
        "$WScriptObj = New-Object -ComObject (\"WScript.Shell\")",
        "$shortcut = $WscriptObj.CreateShortcut($ShortcutPath1)",
        "$shortcut.TargetPath = $SourceFilePath",
        "$shortcut.Arguments = $Arguments",
        "$shortcut.WorkingDirectory = \"$dir\";",
        "$shortcut.WindowStyle = 1;",
        "$shortcut.IconLocation = $Icon",
        "$shortcut.Save()",
        "Copy-Item \"$ShortcutPath1\" -Destination \"$ShortcutPath2\"",
        "mkdir $env:GalSave\\$Name >$null 2>$null",
        "New-Item -ItemType Junction -Path $DefaultSaveDir -Target ${env:GalSave}\\$Name >$null"
    ],
    "uninstaller": {
        "script": [
            "$ChineseName = \"家有仙妻～无名小猫又与神tuber～\"",
            "$Name = \"iegami2\"",
            "$ShortcutPath1 = \"${env:APPDATA}\\Microsoft\\Windows\\Start Menu\\Programs\\Scoop Apps\\$ChineseName.lnk\"",
            "$ShortcutPath2 = \"${env:APPDATA}\\Microsoft\\Windows\\Start Menu\\Programs\\Scoop Apps\\$Name.lnk\"",
            "$DefaultSaveDir = \"$dir\\save\"",
            "Remove-Item -Path $DefaultSaveDir -Recurse -Force",
            "Remove-Item -Path \"$ShortcutPath1\"",
            "Remove-Item -Path \"$ShortcutPath2\""
        ]
    }
}
