{
    "version"     : "1.0",
    "description" : "与妹妹的记忆",
    "url"         : "http://alist.zxc.cn/d/scoop/imokega.7z",
    "hash"        : "80F3A381AFA217BBE073C6FB715211839B0106A2A748D30A04163208859C0A68",
    "post_install": [
        "mkdir ${env:GalSave}\\imokega >$null 2>$null",
        "New-Item -ItemType Junction -Path \"$dir\\savedata\" -Target ${env:GalSave}\\imokega >$null"
    ],
    "shortcuts"   : [
        [
            "SiglusEngine_chs.exe",
            "imokega"
        ],
        [
            "SiglusEngine_chs.exe",
            "与妹妹的记忆"
        ]
    ]
}
