{
  "version": "1.0",
  "description": "祝姬",
  "url": "http://alist.zxc.cn/d/scoop/iwaihime.7z",
  "hash": "bba85f6f74213c1a52563d7d036e1c93dd7f80953d8d937638bd0e60e6d79080",
  "post_install": [
    "mkdir $env:GalSave\\iwaihime >$null 2>$null",
    "New-Item -ItemType Junction -Path \"${env:APPDATA}\\DMM_GAMES\\Iwaihime\" -Target $env:GalSave\\iwaihime >$null"
  ],
  "shortcuts": [
    [
      "iw.exe",
      "Iwaihime"
    ],
    [
      "iw.exe",
      "祝姬"
    ]
  ],
  "uninstaller": {
    "script": [
      "Remove-Item -Path \"${env:APPDATA}\\DMM_GAMES\\Iwaihime\" -Recurse -Force"
    ]
  }
}
