{
  "version": "1.0",
  "description": "虚之少女",
  "url": "http://alist.zxc.cn/d/scoop/kara_no_shoujo2.7z",
  "hash": "7c951780c80558e3083fc104a429536f48e032b9807c7ffa014a8fefba1c6e6a",
  "post_install": [
    "mkdir $env:GalSave\\kara_no_shoujo2 >$null 2>$null",
    "New-Item -ItemType Junction -Path $dir\\save -Target $env:GalSave\\kara_no_shoujo2 >$null"
  ],
  "shortcuts": [
    [
      "虚ノ少女.exe",
      "虚之少女"
    ],
    [
      "虚ノ少女.exe",
      "kara no shoujo 2"
    ]
  ]
}
