{
    "version"     : "1.0",
    "description" : "寄宿之恋",
    "homepage"    : "http://www.hook-net.jp/smee/",
    "url"         : "http://alist.zxc.cn/d/scoop/kari.7z",
    "hash"        : "39D9E8012382A4052035AA574577D4B17BAAFB5D3B3216161AA92C49EA6DE243",
    "post_install": [
        "mkdir $env:GalSave\\kari >$null 2>$null",
        "New-Item -ItemType Junction -Path $dir\\savsdata_cn -Target $env:GalSave\\kari >$null"
    ],
    "shortcuts"   : [
        [
            "kari_cn.exe",
            "kari"
        ],
        [
            "kari_cn.exe",
            "寄宿之恋"
        ]
    ]
}
