{
  "version": "1.0",
  "description": "兽娘道 ☆ Girlish Square 2",
  "url": "http://alist.zxc.cn/d/scoop/kemonomichi2.7z",
  "hash": "CF0DE4C9413FD33E3191CC740CDA3558228CD854CEDA9EDA43EA3F8F938A99B5",
  "post_install": [
    "mkdir $env:GalSave\\kemonomichi2 >$null 2>$null",
    "New-Item -ItemType Junction -Path $dir\\save -Target $env:GalSave\\kemonomichi2 >$null"
  ],
  "shortcuts": [
    [
      "kemonomichi2.exe",
      "兽娘道 ☆ Girlish Square 2"
    ],
    [
      "kemonomichi2.exe",
      "Animal Trail Girlish Square 2"
    ]
  ]
}