{
  "version": "1.0",
  "description": "尚有佳蜜伴恋心2",
  "url": "http://alist.zxc.cn/d/scoop/koiama2.7z",
  "hash": "b659f27fbc4e477af60cffee47f96e8af68a210a3b6c6ef05941762f2711c7eb",
  "post_install": [
    "mkdir $env:GalSave\\koiama2 >$null 2>$null",
    "New-Item -ItemType Junction -Path \"${env:APPDATA}\\CANVAS+GARDEN\\koiama_ml2_cn\" -Target $env:GalSave\\koiama2 >$null"
  ],
  "shortcuts": [
    [
      "KoiniKanmiwoSoete2.exe",
      "koiama2"
    ],
    [
      "KoiniKanmiwoSoete2.exe",
      "尚有佳蜜伴恋心2"
    ]
  ],
  "uninstaller": {
    "script": [
      "Remove-Item -Path \"${env:APPDATA}\\CANVAS+GARDEN\\koiama_ml2_cn\" -Recurse -Force"
    ]
  }
}
