{
  "version": "1.0",
  "description": "仓野家的双胞胎故事",
  "url": "http://alist.zxc.cn/d/scoop/kurano.7z",
  "hash": "7eb35a07752940a00b1d15d98c18d3cc4bbc321603c1706a57149e4a7f44bfa3",
  "post_install": [
    "$SourceFilePath = \"$env:USERPROFILE\\scoop\\apps\\locale-emulator\\current\\LEProc.exe\"",
    "$ChineseName = \"仓野家的双胞胎故事\"",
    "$Name = \"kurano\"",
    "$ShortcutPath1 = \"${env:APPDATA}\\Microsoft\\Windows\\Start Menu\\Programs\\Scoop Apps\\$ChineseName.lnk\"",
    "$ShortcutPath2 = \"${env:APPDATA}\\Microsoft\\Windows\\Start Menu\\Programs\\Scoop Apps\\$Name.lnk\"",
    "$DefaultSaveDir = \"$dir\\savedata\"",
    "$exe = \"Kurano_chs.exe\"",
    "$Arguments = \"-run $dir\\$exe\"",
    "$Icon = \"$dir\\$exe, 0\"",
    "$WScriptObj = New-Object -ComObject (\"WScript.Shell\")",
    "$shortcut = $WscriptObj.CreateShortcut($ShortcutPath1)",
    "$shortcut.TargetPath = $SourceFilePath",
    "$shortcut.Arguments = $Arguments",
    "$shortcut.WorkingDirectory = \"$dir\";",
    "$shortcut.WindowStyle = 1;",
    "$shortcut.IconLocation = $Icon",
    "$shortcut.Save()",
    "Copy-Item \"$ShortcutPath1\" -Destination \"$ShortcutPath2\"",
    "mkdir $env:GalSave\\$Name >$null 2>$null",
    "New-Item -ItemType Junction -Path $DefaultSaveDir -Target ${env:GalSave}\\$Name >$null"
  ],
  "uninstaller": {
    "script": [
      "$ChineseName = \"仓野家的双胞胎故事\"",
      "$Name = \"kurano\"",
      "$ShortcutPath1 = \"${env:APPDATA}\\Microsoft\\Windows\\Start Menu\\Programs\\Scoop Apps\\$ChineseName.lnk\"",
      "$ShortcutPath2 = \"${env:APPDATA}\\Microsoft\\Windows\\Start Menu\\Programs\\Scoop Apps\\$Name.lnk\"",
      "Remove-Item -Path \"$ShortcutPath1\"",
      "Remove-Item -Path \"$ShortcutPath2\""
    ]
  }
}
