{
    "version": "1.0",
    "description": "与女大生的同居生活",
    "url": "http://alist.zxc.cn/d/scoop/life_with_a_college_girl.7z",
    "hash": "3d689f50a5c47ee93586c3035ba39f799d149fac6c4947dbda483180aa86af9c",
    "post_install": [
        "mkdir $env:GalSave\\life_with_a_college_girl >$null 2>$null",
        "New-Item -ItemType Junction -Path \"${env:userprofile}\\AppData\\LocalLow\\Playmeow\\Life with a College Girl\" -Target $env:GalSave\\life_with_a_college_girl >$null"
    ],
    "shortcuts": [
        [
            "Life with a College Girl.exe",
            "Life with a College Girl"
        ],
        [
            "Life with a College Girl.exe",
            "与女大生的同居生活"
        ]
    ],
    "uninstaller": {
        "script": [
            "Remove-Item -Path \"${env:userprofile}\\AppData\\LocalLow\\Playmeow\\Life with a College Girl\" -Recurse -Force"
        ]
    }
}
