{
  "version": "1.0",
  "description": "间宫摩美想要疗愈你",
  "url": "http://alist.zxc.cn/d/scoop/Mamiya_Mami_wa_Iyashite_Agetai.7z",
  "hash": "443A69D92E4CDA10150DA1002884023E563AFE7F99B8B59339F50DD5689E017D",
  "post_install": [
    "mkdir $env:GalSave\\Mamiya_Mami_wa_Iyashite_Agetai >$null 2>$null",
    "New-Item -ItemType Junction -Path $dir\\userdata -Target $env:GalSave\\Mamiya_Mami_wa_Iyashite_Agetai >$null"
  ],
  "shortcuts": [
    [
      "ExHIBIT.exe",
      "Mamiya_Mami_wa_Iyashite_Agetai"
    ],
    [
      "ExHIBIT.exe",
      "间宫摩美想要疗愈你"
    ]
  ]
}