{
  "version": "1.0",
  "description": "一生推不如一生恋love or die",
  "url": "http://alist.zxc.cn/d/scoop/oshirabuFD.7z",
  "hash": "627d5af76cebacbcbc3e4b9829868a5d12885e76e4505065f7a3f89563bba24c",
  "post_install": [
    "mkdir $env:GalSave\\oshirabuFD >$null 2>$null",
    "New-Item -ItemType Junction -Path $dir\\UserData -Target $env:GalSave\\oshirabuFD >$null"
  ],
  "shortcuts": [
    [
      "OshiloveLOD.exe",
      "一生推不如一生恋love or die"
    ],
    [
      "OshiloveLOD.exe",
      "oshirabu FD"
    ]
  ]
}
