{
    "version": "1.0",
    "description": "本所七大不可思议",
    "url": "http://alist.zxc.cn/d/scoop/paranormasight.7z",
    "hash": "8f1a85e81b987b47215215750c4adac534522b7a27d35cc4539f73d7f1911457",
    "post_install": [
        "mkdir $env:GalSave\\paranormasight >$null 2>$null",
        "$path = [environment]::getfolderpath(\"mydocuments\")",
        "New-Item -ItemType Junction -Path \"$path\\My Games\\PARANORMASIGHT\\Steam\" -Target $env:GalSave\\paranormasight >$null"
    ],
    "shortcuts": [
        [
            "PARANORMASIGHT.exe",
            "本所七大不可思议"
        ],
        [
            "PARANORMASIGHT.exe",
            "本所七大不可思议"
        ]
    ],
    "uninstaller": {
        "script": [
            "$path = [environment]::getfolderpath(\"mydocuments\")",
            "Remove-Item -Path \"$path\\My Games\\PARANORMASIGHT\\Steam\" -Recurse -Force"
        ]
    }
}
