{
    "version"     : "1.0",
    "description" : "ぷにろり湯 · つう",
    "url"         : "http://alist.zxc.cn/d/scoop/puniyu2.7z",
    "hash"        : "49EDBA036DA6DC60E4E47F8B4EA020ACB2D407BF6C44380FC46A6EFDC4B86C22",
    "post_install": [
        "$SourceFilePath = \"$env:USERPROFILE\\scoop\\apps\\locale-emulator\\current\\LEProc.exe\"",
        "$ChineseName = \"ぷにろり湯 · つう\"",
        "$Name = \"puniyu2\"",
        "$ShortcutPath1 = \"${env:APPDATA}\\Microsoft\\Windows\\Start Menu\\Programs\\Scoop Apps\\$ChineseName.lnk\"",
        "$ShortcutPath2 = \"${env:APPDATA}\\Microsoft\\Windows\\Start Menu\\Programs\\Scoop Apps\\$Name.lnk\"",
        "$DefaultSaveDir = \"$dir\\savedata\"",
        "$exe = \"puniyu2_CN.exe\"",
        "$Arguments = \"-run $dir\\$exe\"",
        "$Icon = \"$dir\\$exe, 0\"",
        "$WScriptObj = New-Object -ComObject (\"WScript.Shell\")",
        "$shortcut = $WscriptObj.CreateShortcut($ShortcutPath1)",
        "$shortcut.TargetPath = $SourceFilePath",
        "$shortcut.Arguments = $Arguments",
        "$shortcut.WorkingDirectory = \"$dir\";",
        "$shortcut.WindowStyle = 1;",
        "$shortcut.IconLocation = $Icon",
        "$shortcut.Save()",
        "Copy-Item \"$ShortcutPath1\" -Destination \"$ShortcutPath2\"",
        "mkdir $env:GalSave\\$Name >$null 2>$null",
        "New-Item -ItemType Junction -Path $DefaultSaveDir -Target ${env:GalSave}\\$Name >$null"
    ],
    "uninstaller": {
        "script": [
            "$ChineseName = \"ぷにろり湯 · つう\"",
            "$Name = \"puniyu2\"",
            "$ShortcutPath1 = \"${env:APPDATA}\\Microsoft\\Windows\\Start Menu\\Programs\\Scoop Apps\\$ChineseName.lnk\"",
            "$ShortcutPath2 = \"${env:APPDATA}\\Microsoft\\Windows\\Start Menu\\Programs\\Scoop Apps\\$Name.lnk\"",
            "$DefaultSaveDir = \"$dir\\savedata\"",
            "Remove-Item -Path $DefaultSaveDir -Recurse -Force",
            "Remove-Item -Path \"$ShortcutPath1\"",
            "Remove-Item -Path \"$ShortcutPath2\""
        ]
    }
}
