{
  "version": "1.0",
  "description": "SEX战争 ~有爱的爱爱是禁止的哦~",
  "url": "http://alist.zxc.cn/d/scoop/sexwar.7z",
  "hash": "828c7fca7b8ecfb2f8b20ce7c294586c66f79706b5a5b9c582243dd89d36c670",
  "post_install": [
    "$SourceFilePath = \"$env:USERPROFILE\\scoop\\apps\\locale-emulator\\current\\LEProc.exe\"",
    "$ChineseName = \"SEX战争 ~有爱的爱爱是禁止的哦~\"",
    "$Name = \"sexwar\"",
    "$ShortcutPath1 = \"${env:APPDATA}\\Microsoft\\Windows\\Start Menu\\Programs\\Scoop Apps\\$ChineseName.lnk\"",
    "$ShortcutPath2 = \"${env:APPDATA}\\Microsoft\\Windows\\Start Menu\\Programs\\Scoop Apps\\$Name.lnk\"",
    "$DefaultSaveDir = \"$dir\\savedata\"",
    "$exe = \"SEXW_chs.exe\"",
    "$Arguments = \"-run $dir\\$exe\"",
    "$Icon = \"$dir\\$exe, 0\"",
    "$WScriptObj = New-Object -ComObject (\"WScript.Shell\")",
    "$shortcut = $WscriptObj.CreateShortcut($ShortcutPath1)",
    "$shortcut.TargetPath = $SourceFilePath",
    "$shortcut.Arguments = $Arguments",
    "$shortcut.WorkingDirectory = \"$dir\";",
    "$shortcut.WindowStyle = 1;",
    "$shortcut.IconLocation = $Icon",
    "$shortcut.Save()",
    "Copy-Item \"$ShortcutPath1\" -Destination \"$ShortcutPath2\"",
    "mkdir $env:GalSave\\$Name >$null 2>$null",
    "New-Item -ItemType Junction -Path $DefaultSaveDir -Target ${env:GalSave}\\$Name >$null"
  ],
  "uninstaller": {
    "script": [
      "$ChineseName = \"SEX战争 ~有爱的爱爱是禁止的哦~\"",
      "$Name = \"sexwar\"",
      "$ShortcutPath1 = \"${env:APPDATA}\\Microsoft\\Windows\\Start Menu\\Programs\\Scoop Apps\\$ChineseName.lnk\"",
      "$ShortcutPath2 = \"${env:APPDATA}\\Microsoft\\Windows\\Start Menu\\Programs\\Scoop Apps\\$Name.lnk\"",
      "Remove-Item -Path \"$ShortcutPath1\"",
      "Remove-Item -Path \"$ShortcutPath2\""
    ]
  }
}
