{
    "version"     : "1.0",
    "description" : "创刻的动脉",
    "url"         : "http://alist.zxc.cn/d/scoop/soukokunoarterial.7z",
    "hash"        : "20551E2B9FE24AB1B4020252A1C2DBB4584396168A8D50845589DFFFAB104BD8",
    "post_install": [
        "$SourceFilePath = \"$env:USERPROFILE\\scoop\\apps\\locale-emulator\\current\\LEProc.exe\"",
        "$ChineseName = \"创刻的动脉\"",
        "$Name = \"soukokunoarterial\"",
        "$ShortcutPath1 = \"${env:APPDATA}\\Microsoft\\Windows\\Start Menu\\Programs\\Scoop Apps\\$ChineseName.lnk\"",
        "$ShortcutPath2 = \"${env:APPDATA}\\Microsoft\\Windows\\Start Menu\\Programs\\Scoop Apps\\$Name.lnk\"",
        "$DefaultSaveDir = \"${env:LOCALAPPDATA}\\Eushully\"",
        "$exe = \"AGE_CHS.exe\"",
        "$Arguments = \"-run $dir\\$exe\"",
        "$Icon = \"$dir\\$exe, 0\"",
        "$WScriptObj = New-Object -ComObject (\"WScript.Shell\")",
        "$shortcut = $WscriptObj.CreateShortcut($ShortcutPath1)",
        "$shortcut.TargetPath = $SourceFilePath",
        "$shortcut.Arguments = $Arguments",
        "$shortcut.WorkingDirectory = \"$dir\";",
        "$shortcut.WindowStyle = 1;",
        "$shortcut.IconLocation = $Icon",
        "$shortcut.Save()",
        "Copy-Item \"$ShortcutPath1\" -Destination \"$ShortcutPath2\"",
        "mkdir $env:GalSave\\$Name >$null 2>$null",
        "New-Item -ItemType Junction -Path $DefaultSaveDir -Target ${env:GalSave}\\$Name >$null"
    ],
    "uninstaller": {
        "script": [
            "$ChineseName = \"创刻的动脉\"",
            "$Name = \"soukokunoarterial\"",
            "$ShortcutPath1 = \"${env:APPDATA}\\Microsoft\\Windows\\Start Menu\\Programs\\Scoop Apps\\$ChineseName.lnk\"",
            "$ShortcutPath2 = \"${env:APPDATA}\\Microsoft\\Windows\\Start Menu\\Programs\\Scoop Apps\\$Name.lnk\"",
            "$DefaultSaveDir = \"${env:LOCALAPPDATA}\\Eushully\"",
            "Remove-Item -Path $DefaultSaveDir -Recurse -Force",
            "Remove-Item -Path \"$ShortcutPath1\"",
            "Remove-Item -Path \"$ShortcutPath2\""
        ]
    }
}
