{
  "version": "1.0",
  "description": "命运石之门",
  "url": "http://alist.zxc.cn/d/scoop/STEINSGATE.7z",
  "hash": "6c27306209643fb9f751fabbd0b9ddf2ae5d0ba02cea4173bb060a2892864fbe",
  "post_install": [
    "mkdir ${env:GalSave}\\STEINSGATE >$null 2>$null",
    "$path = [environment]::getfolderpath(\"mydocuments\")",
    "New-Item -ItemType Junction -Path \"$path\\My Games\\mages_steam\\STEINS;GATE\" -Target ${env:GalSave}\\STEINSGATE >$null"
  ],
  "shortcuts": [
    [
      "Launcher.exe",
      "STEINS GATE"
    ],
    [
      "Launcher.exe",
      "命运石之门"
    ]
  ],
  "uninstaller": {
    "script": [
      "$path = [environment]::getfolderpath(\"mydocuments\")",
      "Remove-Item -Path \"$path\\My Games\\mages_steam\\STEINS;GATE\" -Recurse -Force"
    ]
  }
}
