{
  "version": "1.0",
  "description": "Summer Pockets REFLECTION BLUE",
  "url": "http://alist.zxc.cn/d/scoop/summer_pockets_reflection_blue.7z",
  "hash": "fa7e2aee7c345247b46f0063484e4b0d4a6d1d1b77f34b96d812ec6f508899c6",
  "post_install": [
    "mkdir $env:GalSave\\summer_pockets_reflection_blue >$null 2>$null",
    "mkdir $env:GalSave\\summer_pockets_reflection_blue\\savedata >$null 2>$null",
    "mkdir $env:GalSave\\summer_pockets_reflection_blue\\save_chs >$null 2>$null",
    "New-Item -ItemType Junction -Path $dir\\savedata -Target $env:GalSave\\summer_pockets_reflection_blue\\savedata >$null",
    "New-Item -ItemType Junction -Path $dir\\save_chs -Target $env:GalSave\\summer_pockets_reflection_blue\\save_chs >$null"
  ],
  "shortcuts": [
    [
      "SummerPockets（夏日纯臻汉化组）.exe",
      "SummerPockets（夏日纯臻汉化组）"
    ],
    [
      "SummerPockets（枫笛汉化组）.exe",
      "SummerPockets（枫笛汉化组）"
    ]
  ]
}
