{
    "version"     : "1.0",
    "description" : "宿星Girlfriend2",
    "url"         : "http://alist.zxc.cn/d/scoop/syukugar2.7z",
    "hash"        : "2C28771A3E8364593D676C616F2C5E79BBA45FBB1134B57324D84D64F03A7D5F",
    "post_install": [
        "$SourceFilePath = \"$env:USERPROFILE\\scoop\\apps\\locale-emulator\\current\\LEProc.exe\"",
        "$ChineseName = \"宿星Girlfriend2\"",
        "$Name = \"syukugar2\"",
        "$ShortcutPath1 = \"${env:APPDATA}\\Microsoft\\Windows\\Start Menu\\Programs\\Scoop Apps\\$ChineseName.lnk\"",
        "$ShortcutPath2 = \"${env:APPDATA}\\Microsoft\\Windows\\Start Menu\\Programs\\Scoop Apps\\$Name.lnk\"",
        "$path = [environment]::getfolderpath(\"mydocuments\")",
        "$DefaultSaveDir1 = \"$path\\mirai\\【绿茶汉化组】宿星Girlfriend２\\save\"",
        "$DefaultSaveDir2 = \"$dir\\save\"",
        "$exe = \"宿星のガールフレンド２chs.exe\"",
        "$Arguments = \"-run $dir\\$exe\"",
        "$Icon = \"$dir\\$exe, 0\"",
        "$WScriptObj = New-Object -ComObject (\"WScript.Shell\")",
        "$shortcut = $WscriptObj.CreateShortcut($ShortcutPath1)",
        "$shortcut.TargetPath = $SourceFilePath",
        "$shortcut.Arguments = $Arguments",
        "$shortcut.WorkingDirectory = \"$dir\";",
        "$shortcut.WindowStyle = 1;",
        "$shortcut.IconLocation = $Icon",
        "$shortcut.Save()",
        "Copy-Item \"$ShortcutPath1\" -Destination \"$ShortcutPath2\"",
        "mkdir $env:GalSave\\$Name >$null 2>$null",
        "New-Item -ItemType Junction -Path $DefaultSaveDir1 -Target ${env:GalSave}\\$Name >$null",
        "New-Item -ItemType Junction -Path $DefaultSaveDir2 -Target ${env:GalSave}\\$Name >$null"
    ],
    "uninstaller": {
        "script": [
            "$ChineseName = \"宿星Girlfriend2\"",
            "$Name = \"syukugar2\"",
            "$ShortcutPath1 = \"${env:APPDATA}\\Microsoft\\Windows\\Start Menu\\Programs\\Scoop Apps\\$ChineseName.lnk\"",
            "$ShortcutPath2 = \"${env:APPDATA}\\Microsoft\\Windows\\Start Menu\\Programs\\Scoop Apps\\$Name.lnk\"",
            "$path = [environment]::getfolderpath(\"mydocuments\")",
            "$DefaultSaveDir = \"$path\\mirai\\【绿茶汉化组】宿星Girlfriend２\\save\"",
            "Remove-Item -Path $DefaultSaveDir -Recurse -Force",
            "Remove-Item -Path \"$ShortcutPath1\"",
            "Remove-Item -Path \"$ShortcutPath2\""
        ]
    }
}
