{
  "version": "1.0",
  "description": "命运交织的塔罗牌",
  "url": "http://alist.zxc.cn/d/scoop/tarot.7z",
  "hash": "7597f8f0f71de7a9b49013174a5f78d40a1f669c99188f0336e5a146e7af2689",
  "post_install": [
    "$SourceFilePath = \"$env:USERPROFILE\\scoop\\apps\\locale-emulator\\current\\LEProc.exe\"",
    "$ChineseName = \"命运交织的塔罗牌\"",
    "$Name = \"tarot\"",
    "$ShortcutPath1 = \"${env:APPDATA}\\Microsoft\\Windows\\Start Menu\\Programs\\Scoop Apps\\$ChineseName.lnk\"",
    "$ShortcutPath2 = \"${env:APPDATA}\\Microsoft\\Windows\\Start Menu\\Programs\\Scoop Apps\\$Name.lnk\"",
    "$DefaultSaveDir = \"${env:userprofile}\\Saved Games\\Campus\\命运交织的塔罗牌\"",
    "$DefaultEnvDir = \"${env:APPDATA}\\Campus\\命运交织的塔罗牌\"",
    "$exe = \"malie_cn.exe\"",
    "$Arguments = \"-run $dir\\$exe\"",
    "$Icon = \"$dir\\$exe, 0\"",
    "$WScriptObj = New-Object -ComObject (\"WScript.Shell\")",
    "$shortcut = $WscriptObj.CreateShortcut($ShortcutPath1)",
    "$shortcut.TargetPath = $SourceFilePath",
    "$shortcut.Arguments = $Arguments",
    "$shortcut.WorkingDirectory = \"$dir\";",
    "$shortcut.WindowStyle = 1;",
    "$shortcut.IconLocation = $Icon",
    "$shortcut.Save()",
    "Copy-Item \"$ShortcutPath1\" -Destination \"$ShortcutPath2\"",
    "mkdir $env:GalSave\\$Name >$null 2>$null",
    "mkdir $env:GalSave\\$Name\\save >$null 2>$null",
    "mkdir $env:GalSave\\$Name\\env >$null 2>$null",
    "New-Item -ItemType Junction -Path $DefaultSaveDir -Target ${env:GalSave}\\$Name\\save >$null",
    "New-Item -ItemType Junction -Path $DefaultEnvDir -Target ${env:GalSave}\\$Name\\env >$null"
  ],
  "uninstaller": {
    "script": [
      "$ChineseName = \"命运交织的塔罗牌\"",
      "$Name = \"tarot\"",
      "$ShortcutPath1 = \"${env:APPDATA}\\Microsoft\\Windows\\Start Menu\\Programs\\Scoop Apps\\$ChineseName.lnk\"",
      "$ShortcutPath2 = \"${env:APPDATA}\\Microsoft\\Windows\\Start Menu\\Programs\\Scoop Apps\\$Name.lnk\"",
      "$DefaultSaveDir = \"${env:userprofile}\\Saved Games\\Campus\\命运交织的塔罗牌\"",
      "$DefaultEnvDir = \"${env:APPDATA}\\Campus\\命运交织的塔罗牌\"",
      "Remove-Item -Path $DefaultSaveDir -Recurse -Force",
      "Remove-Item -Path $DefaultEnvDir -Recurse -Force",
      "Remove-Item -Path \"$ShortcutPath1\"",
      "Remove-Item -Path \"$ShortcutPath2\""
    ]
  }
}
