{
  "version": "1.0",
  "description": "Tiny Dungeon ~BRAVE or SLAVE~",
  "url": "http://alist.zxc.cn/d/scoop/TinyDungeon4.7z",
  "hash": "caba96dd878379c84b60988e391f23254d95933860c21ceb852c29e259c48286",
  "post_install": [
    "$SourceFilePath = \"$env:USERPROFILE\\scoop\\apps\\locale-emulator\\current\\LEProc.exe\"",
    "$ChineseName = \"Tiny Dungeon ~BRAVE or SLAVE~\"",
    "$Name = \"TinyDungeon4\"",
    "$ShortcutPath1 = \"${env:APPDATA}\\Microsoft\\Windows\\Start Menu\\Programs\\Scoop Apps\\$ChineseName.lnk\"",
    "$ShortcutPath2 = \"${env:APPDATA}\\Microsoft\\Windows\\Start Menu\\Programs\\Scoop Apps\\$Name.lnk\"",
    "$DefaultSaveDir = \"$dir\\save\"",
    "$exe = \"Tiny_BoS_cn.exe\"",
    "$Arguments = \"-run $dir\\$exe\"",
    "$Icon = \"$dir\\$exe, 0\"",
    "$WScriptObj = New-Object -ComObject (\"WScript.Shell\")",
    "$shortcut = $WscriptObj.CreateShortcut($ShortcutPath1)",
    "$shortcut.TargetPath = $SourceFilePath",
    "$shortcut.Arguments = $Arguments",
    "$shortcut.WorkingDirectory = \"$dir\";",
    "$shortcut.WindowStyle = 1;",
    "$shortcut.IconLocation = $Icon",
    "$shortcut.Save()",
    "Copy-Item \"$ShortcutPath1\" -Destination \"$ShortcutPath2\"",
    "mkdir $env:GalSave\\$Name >$null 2>$null",
    "New-Item -ItemType Junction -Path $DefaultSaveDir -Target ${env:GalSave}\\$Name >$null"
  ],
  "uninstaller": {
    "script": [
      "$ChineseName = \"Tiny Dungeon ~BRAVE or SLAVE~\"",
      "$Name = \"TinyDungeon4\"",
      "$ShortcutPath1 = \"${env:APPDATA}\\Microsoft\\Windows\\Start Menu\\Programs\\Scoop Apps\\$ChineseName.lnk\"",
      "$ShortcutPath2 = \"${env:APPDATA}\\Microsoft\\Windows\\Start Menu\\Programs\\Scoop Apps\\$Name.lnk\"",
      "Remove-Item -Path \"$ShortcutPath1\"",
      "Remove-Item -Path \"$ShortcutPath2\""
    ]
  }
}
