{
  "version": "1.0",
  "description": "悠久的钟声",
  "url": "http://alist.zxc.cn/d/scoop/UQcampanella.7z",
  "hash": "ed3efc91d00f490e33a5b063eb3d18716eaf01c24b501bdc2f04c914bd44f227",
  "post_install": [
    "mkdir $env:GalSave\\UQcampanella >$null 2>$null",
    "New-Item -ItemType Junction -Path ${env:APPDATA}\\ういんどみるOasis\\悠久のカンパネラ -Target $env:GalSave\\UQcampanella >$null"
  ],
  "shortcuts": [
    [
      "UQcampanella.exe",
      "悠久的钟声"
    ],
    [
      "UQcampanella.exe",
      "UQcampanella"
    ]
  ],
  "uninstaller": {
    "script": [
      "Remove-Item -Path \"${env:APPDATA}\\ういんどみるOasis\\悠久のカンパネラ\" -Recurse -Force"
    ]
  }
}
