{
  "version": "1.0",
  "description": "白色相簿 重制版",
  "url": "http://alist.zxc.cn/d/scoop/whitealbum.7z",
  "hash": "127fb2f8e0026effb0da87f30687ff8f9b8fd9b332014e6f9f24fc74ff71a612",
  "post_install": [
    "$SourceFilePath = \"$env:USERPROFILE\\scoop\\apps\\locale-emulator\\current\\LEProc.exe\"",
    "$ChineseName = \"白色相簿 重制版\"",
    "$Name = \"whitealbum\"",
    "$ShortcutPath1 = \"${env:APPDATA}\\Microsoft\\Windows\\Start Menu\\Programs\\Scoop Apps\\$ChineseName.lnk\"",
    "$ShortcutPath2 = \"${env:APPDATA}\\Microsoft\\Windows\\Start Menu\\Programs\\Scoop Apps\\$Name.lnk\"",
    "$path = [environment]::getfolderpath(\"mydocuments\")",
    "$DefaultSaveDir = \"$path\\AQUAPLUS\\WHITE ALBUM -綴られる冬の想い出-\"",
    "$exe = \"WHITE ALBUM CHS.exe\"",
    "$Arguments = \"-run $dir\\$exe\"",
    "$Icon = \"$dir\\$exe, 0\"",
    "$WScriptObj = New-Object -ComObject (\"WScript.Shell\")",
    "$shortcut = $WscriptObj.CreateShortcut($ShortcutPath1)",
    "$shortcut.TargetPath = $SourceFilePath",
    "$shortcut.Arguments = $Arguments",
    "$shortcut.WorkingDirectory = \"$dir\";",
    "$shortcut.WindowStyle = 1;",
    "$shortcut.IconLocation = $Icon",
    "$shortcut.Save()",
    "Copy-Item \"$ShortcutPath1\" -Destination \"$ShortcutPath2\"",
    "mkdir $env:GalSave\\$Name >$null 2>$null",
    "New-Item -ItemType Junction -Path $DefaultSaveDir -Target ${env:GalSave}\\$Name >$null"
  ],
  "uninstaller": {
    "script": [
      "$ChineseName = \"白色相簿 重制版\"",
      "$Name = \"whitealbum\"",
      "$ShortcutPath1 = \"${env:APPDATA}\\Microsoft\\Windows\\Start Menu\\Programs\\Scoop Apps\\$ChineseName.lnk\"",
      "$ShortcutPath2 = \"${env:APPDATA}\\Microsoft\\Windows\\Start Menu\\Programs\\Scoop Apps\\$Name.lnk\"",
      "$path = [environment]::getfolderpath(\"mydocuments\")",
      "$DefaultSaveDir = \"$path\\AQUAPLUS\\WHITE ALBUM -綴られる冬の想い出-\"",
      "Remove-Item -Path $DefaultSaveDir -Recurse -Force",
      "Remove-Item -Path \"$ShortcutPath1\"",
      "Remove-Item -Path \"$ShortcutPath2\""
    ]
  }
}
