{
  "version": "1.0",
  "description": "雪色暗号",
  "url": "http://alist.zxc.cn/d/scoop/yukiirosign.7z",
  "hash": "3709ad6a9c79d569797ef02b0418387ea1f67feed33354ee0090ab9e631bd43a",
  "post_install": [
    "mkdir $env:GalSave\\yukiirosign >$null 2>$null",
    "New-Item -ItemType Junction -Path $dir\\savedata -Target $env:GalSave\\yukiirosign >$null"
  ],
  "shortcuts": [
    [
      "YukiiroSign.exe",
      "雪色暗号"
    ],
    [
      "YukiiroSign.exe",
      "Yukiiro Sign"
    ]
  ]
}
