{
  "version": "1.0",
  "description": "三千心世界，梦终将实现",
  "url": "http://alist.zxc.cn/d/scoop/yurauka.7z",
  "hash": "b3cbca202b9746fa0ef8697207775154f9dbc30bdf8643736a5d1341c9bf04fb",
  "post_install": [
    "mkdir $env:GalSave\\yurauka >$null 2>$null",
    "New-Item -ItemType Junction -Path \"${env:APPDATA}\\CUBE\\ゆらめく心に満ちた世界で、君の夢と欲望は叶うか\" -Target $env:GalSave\\yurauka >$null"
  ],
  "shortcuts": [
    [
      "yurauka.exe",
      "yurauka"
    ],
    [
      "yurauka.exe",
      "三千心世界，梦终将实现"
    ]
  ],
  "uninstaller": {
    "script": [
      "Remove-Item -Path \"${env:APPDATA}\\CUBE\\ゆらめく心に満ちた世界で、君の夢と欲望は叶うか\" -Recurse -Force"
    ]
  }
}
