{
  "version": "1.0",
  "description": "梦现Re:Master",
  "url": "http://alist.zxc.cn/d/scoop/yurimaster.7z",
  "hash": "e08596afc27cc14ff9a24b3332f392a1a73f0f1a2c1302a61bb2ef1eb2657a2b",
  "post_install": [
    "mkdir $env:GalSave\\yurimaster >$null 2>$null",
    "New-Item -ItemType Junction -Path \"${env:LOCALAPPDATA}\\KOGADO\\Yuremaster\" -Target $env:GalSave\\yurimaster >$null"
  ],
  "shortcuts": [
    [
      "Yure.exe",
      "yurimaster"
    ],
    [
      "Yure.exe",
      "梦现Re:Master"
    ]
  ],
  "uninstaller": {
    "script": [
      "Remove-Item -Path \"${env:LOCALAPPDATA}\\KOGADO\\Yuremaster\" -Recurse -Force"
    ]
  }
}
